{"content":[{"concepts":[{"id":"3885366","name":"ump1 (saccharomyces cerevisiae s288c)","semanticCategory":"Genes & Molecular Sequences","semanticTypes":["T028"],"taxonomies":["saccharomyces cerevisiae s288c"]},{"id":"3887995","name":"poc4 (saccharomyces cerevisiae s288c)","semanticCategory":"Genes & Molecular Sequences","semanticTypes":["T028"],"taxonomies":["saccharomyces cerevisiae s288c"]},{"id":"814946","name":"1-butanol","semanticCategory":"Chemicals & Drugs","semanticTypes":["T104","T119"],"taxonomies":[]}],"relationships":[{"concept0Id":"3885366","concept1Id":"3887995","tripleIds":["148726339","148768319"],"publicationIds":["231486111","231488359"],"predicateIds":["10773577","10773577"]},{"concept0Id":"3887995","concept1Id":"814946","tripleIds":["147098508"],"publicationIds":["231349408"],"predicateIds":["10773565"]}],"score":9.062691922394448},{"concepts":[{"id":"3885475","name":"pre9 (saccharomyces cerevisiae s288c)","semanticCategory":"Genes & Molecular Sequences","semanticTypes":["T028"],"taxonomies":["saccharomyces cerevisiae s288c"]},{"id":"3887995","name":"poc4 (saccharomyces cerevisiae s288c)","semanticCategory":"Genes & Molecular Sequences","semanticTypes":["T028"],"taxonomies":["saccharomyces cerevisiae s288c"]},{"id":"814946","name":"1-butanol","semanticCategory":"Chemicals & Drugs","semanticTypes":["T104","T119"],"taxonomies":[]}],"relationships":[{"concept0Id":"3885475","concept1Id":"3887995","tripleIds":["148959154","148768407"],"publicationIds":["231488359","231489224"],"predicateIds":["10773577","10773577"]},{"concept0Id":"3887995","concept1Id":"814946","tripleIds":["147098508"],"publicationIds":["231349408"],"predicateIds":["10773565"]}],"score":9.242785923903803},{"concepts":[{"id":"3877954","name":"swi6 (saccharomyces cerevisiae s288c)","semanticCategory":"Genes & Molecular Sequences","semanticTypes":["T028"],"taxonomies":["saccharomyces cerevisiae s288c"]},{"id":"3885322","name":"bud2 (saccharomyces cerevisiae s288c)","semanticCategory":"Genes & Molecular Sequences","semanticTypes":["T028"],"taxonomies":["saccharomyces cerevisiae s288c"]},{"id":"814946","name":"1-butanol","semanticCategory":"Chemicals & Drugs","semanticTypes":["T104","T119"],"taxonomies":[]}],"relationships":[{"concept0Id":"3877954","concept1Id":"3885322","tripleIds":["148811482","148811069"],"publicationIds":["231488750","231486628"],"predicateIds":["10773577","10773577"]},{"concept0Id":"3885322","concept1Id":"814946","tripleIds":["148077612"],"publicationIds":["231450039"],"predicateIds":["10773565"]}],"score":9.454759794875356},{"concepts":[{"id":"3885366","name":"ump1 (saccharomyces cerevisiae s288c)","semanticCategory":"Genes & Molecular Sequences","semanticTypes":["T028"],"taxonomies":["saccharomyces cerevisiae s288c"]},{"id":"3886001","name":"sec66 (saccharomyces cerevisiae s288c)","semanticCategory":"Genes & Molecular Sequences","semanticTypes":["T028"],"taxonomies":["saccharomyces cerevisiae s288c"]},{"id":"814946","name":"1-butanol","semanticCategory":"Chemicals & Drugs","semanticTypes":["T104","T119"],"taxonomies":[]}],"relationships":[{"concept0Id":"3885366","concept1Id":"3886001","tripleIds":["42475071","42475153"],"publicationIds":["191030418","191030455"],"predicateIds":["10773561","10773561"]},{"concept0Id":"3886001","concept1Id":"814946","tripleIds":["147618228"],"publicationIds":["231371677"],"predicateIds":["10773565"]}],"score":9.466635478465765},{"concepts":[{"id":"3885366","name":"ump1 (saccharomyces cerevisiae s288c)","semanticCategory":"Genes & Molecular Sequences","semanticTypes":["T028"],"taxonomies":["saccharomyces cerevisiae s288c"]},{"id":"3888737","name":"cap2 (saccharomyces cerevisiae s288c)","semanticCategory":"Genes & Molecular Sequences","semanticTypes":["T028"],"taxonomies":["saccharomyces cerevisiae s288c"]},{"id":"814946","name":"1-butanol","semanticCategory":"Chemicals & Drugs","semanticTypes":["T104","T119"],"taxonomies":[]}],"relationships":[{"concept0Id":"3885366","concept1Id":"3888737","tripleIds":["148904812","148724357"],"publicationIds":["231486111","231485856"],"predicateIds":["10773577","10773577"]},{"concept0Id":"3888737","concept1Id":"814946","tripleIds":["147598540"],"publicationIds":["231383594"],"predicateIds":["10773565"]}],"score":9.508672179744778},{"concepts":[{"id":"3885366","name":"ump1 (saccharomyces cerevisiae s288c)","semanticCategory":"Genes & Molecular Sequences","semanticTypes":["T028"],"taxonomies":["saccharomyces cerevisiae s288c"]},{"id":"3885366","name":"ump1 (saccharomyces cerevisiae s288c)","semanticCategory":"Genes & Molecular Sequences","semanticTypes":["T028"],"taxonomies":["saccharomyces cerevisiae s288c"]},{"id":"814946","name":"1-butanol","semanticCategory":"Chemicals & Drugs","semanticTypes":["T104","T119"],"taxonomies":[]}],"relationships":[{"concept0Id":"3885366","concept1Id":"3885366","tripleIds":["148595690"],"publicationIds":[],"predicateIds":["10773577"]},{"concept0Id":"3885366","concept1Id":"814946","tripleIds":["147620161"],"publicationIds":["231372175"],"predicateIds":["10773565"]}],"score":9.617789722023364},{"concepts":[{"id":"3886523","name":"vps15 (saccharomyces cerevisiae s288c)","semanticCategory":"Genes & Molecular Sequences","semanticTypes":["T028"],"taxonomies":["saccharomyces cerevisiae s288c"]},{"id":"3886523","name":"vps15 (saccharomyces cerevisiae s288c)","semanticCategory":"Genes & Molecular Sequences","semanticTypes":["T028"],"taxonomies":["saccharomyces cerevisiae s288c"]},{"id":"814946","name":"1-butanol","semanticCategory":"Chemicals & Drugs","semanticTypes":["T104","T119"],"taxonomies":[]}],"relationships":[{"concept0Id":"3886523","concept1Id":"3886523","tripleIds":["148561095"],"publicationIds":[],"predicateIds":["10773577"]},{"concept0Id":"3886523","concept1Id":"814946","tripleIds":["147266592"],"publicationIds":["231358498"],"predicateIds":["10773565"]}],"score":9.635760813090927},{"concepts":[{"id":"3887820","name":"did4 (saccharomyces cerevisiae s288c)","semanticCategory":"Genes & Molecular Sequences","semanticTypes":["T028"],"taxonomies":["saccharomyces cerevisiae s288c"]},{"id":"3889171","name":"asr1 (saccharomyces cerevisiae s288c)","semanticCategory":"Genes & Molecular Sequences","semanticTypes":["T028"],"taxonomies":["saccharomyces cerevisiae s288c"]},{"id":"814946","name":"1-butanol","semanticCategory":"Chemicals & Drugs","semanticTypes":["T104","T119"],"taxonomies":[]}],"relationships":[{"concept0Id":"3887820","concept1Id":"3889171","tripleIds":["148728198","148728233","148606969","148606882"],"publicationIds":["231486140","231487803"],"predicateIds":["10773577","10773571","10773571","10773577"]},{"concept0Id":"3889171","concept1Id":"814946","tripleIds":["147206789"],"publicationIds":["231381808"],"predicateIds":["10773565"]}],"score":9.723118765148016},{"concepts":[{"id":"3878612","name":"stp22 (saccharomyces cerevisiae s288c)","semanticCategory":"Genes & Molecular Sequences","semanticTypes":["T028"],"taxonomies":["saccharomyces cerevisiae s288c"]},{"id":"3886175","name":"gon7 (saccharomyces cerevisiae s288c)","semanticCategory":"Genes & Molecular Sequences","semanticTypes":["T028"],"taxonomies":["saccharomyces cerevisiae s288c"]},{"id":"814946","name":"1-butanol","semanticCategory":"Chemicals & Drugs","semanticTypes":["T104","T119"],"taxonomies":[]}],"relationships":[{"concept0Id":"3878612","concept1Id":"3886175","tripleIds":["148545223","148760707"],"publicationIds":["231485449","231488237"],"predicateIds":["10773577","10773577"]},{"concept0Id":"3886175","concept1Id":"814946","tripleIds":["147732125"],"publicationIds":["231428003"],"predicateIds":["10773565"]}],"score":9.743893213517541},{"concepts":[{"id":"3885475","name":"pre9 (saccharomyces cerevisiae s288c)","semanticCategory":"Genes & Molecular Sequences","semanticTypes":["T028"],"taxonomies":["saccharomyces cerevisiae s288c"]},{"id":"3885366","name":"ump1 (saccharomyces cerevisiae s288c)","semanticCategory":"Genes & Molecular Sequences","semanticTypes":["T028"],"taxonomies":["saccharomyces cerevisiae s288c"]},{"id":"814946","name":"1-butanol","semanticCategory":"Chemicals & Drugs","semanticTypes":["T104","T119"],"taxonomies":[]}],"relationships":[{"concept0Id":"3885475","concept1Id":"3885366","tripleIds":["148957830","148724054"],"publicationIds":["231486111","231489224"],"predicateIds":["10773577","10773577"]},{"concept0Id":"3885366","concept1Id":"814946","tripleIds":["147620161"],"publicationIds":["231372175"],"predicateIds":["10773565"]}],"score":9.79788372353272}],"last":false,"totalElements":262,"totalPages":27,"numberOfElements":10,"first":true,"sort":null,"size":10,"number":0}